[
    {
        "lb": 40,
        "nutrient_id": 1003,
        "nutrient_name": "Protein",
        "ub": 70
    },
    {
        "lb": 200,
        "nutrient_id": 1005,
        "nutrient_name": "Carbohydrate, by difference",
        "ub": 500
    },
    {
        "nutrient_id": 1063,
        "nutrient_name": "Sugars, Total NLEA",
        "ub": 5
    },
    {
        "nutrient_id": 1086,
        "nutrient_name": "Total sugar alcohols",
        "ub": 5
    },
    {
        "lb": 20,
        "nutrient_id": 1079,
        "nutrient_name": "Fiber, total dietary",
        "ub": 30.800000000000004
    },
    {
        "nutrient_id": 1085,
        "nutrient_name": "Total fat (NLEA)",
        "lb": 10,
        "ub": 77
    },
    {
        "nutrient_id": 1257,
        "nutrient_name": "Fatty acids, total trans",
        "ub": 1.6
    },
    {
        "nutrient_id": 1062,
        "nutrient_name": "Energy",
        "ub": 3500,
        "lb": 2000
    },
    {
        "nutrient_id": 1011,
        "nutrient_name": "Glucose (dextrose)",
        "ub": 5
    },  
    {
        "nutrient_id": 1051,
        "nutrient_name": "Water",
        "ub": 1500
    },
    {
        "nutrient_id": 1258,
        "nutrient_name": "Fatty acids, total saturated",
        "ub": 2
    },
    {
        "lb": 1000,
        "nutrient_id": 1087,
        "nutrient_name": "Calcium, Ca",
        "ub": 2000
    },
    {
        "lb": 10,
        "nutrient_id": 1089,
        "nutrient_name": "Iron, Fe",
        "ub": 25
    },
    {
        "lb": 200,
        "nutrient_id": 1090,
        "nutrient_name": "Magnesium, Mg",
        "ub": 500
    },
    {
        "lb": 700,
        "nutrient_id": 1091,
        "nutrient_name": "Phosphorus, P",
        "ub": 1400
    },
    {
        "lb": 3500,
        "nutrient_id": 1092,
        "nutrient_name": "Potassium, K",
        "ub": 4700
    },
    {
        "nutrient_id": 1093,
        "nutrient_name": "Sodium, Na",
        "ub": 2300.0
    },
    {
        "lb": 6,
        "nutrient_id": 1095,
        "nutrient_name": "Zinc, Zn",
        "ub": 15
    },
    {
        "lb": 20,
        "nutrient_id": 1096,
        "nutrient_name": "Chromium, Cr",
        "ub": 40
    },
    {
        "lb": 0.7,
        "nutrient_id": 1098,
        "nutrient_name": "Copper, Cu",
        "ub": 1.2
    },
    {
        "lb": 120.0,
        "nutrient_id": 1100,
        "nutrient_name": "Iodine, I",
        "ub": 170.0
    },
    {
        "lb": 1.8,
        "nutrient_id": 1101,
        "nutrient_name": "Manganese, Mn",
        "ub": 3
    },
    {
        "lb": 40.5,
        "nutrient_id": 1102,
        "nutrient_name": "Molybdenum, Mo",
        "ub": 80
    },
    {
        "lb": 40,
        "nutrient_id": 1103,
        "nutrient_name": "Selenium, Se",
        "ub": 70
    },
    {
        "lb": 1500,
        "nutrient_id": 1104,
        "nutrient_name": "Vitamin A, IU",
        "ub": 3200
    },
    {
        "lb": 81.0,
        "nutrient_id": 1162,
        "nutrient_name": "Vitamin C, total ascorbic acid",
        "ub": 120
    },
    {
        "lb": 1.1700000000000002,
        "nutrient_id": 1166,
        "nutrient_name": "Riboflavin",
        "ub": 3
    },
    {
        "lb": 13,
        "nutrient_id": 1167,
        "nutrient_name": "Niacin",
        "ub": 19
    },
    {
        "lb": 4,
        "nutrient_id": 1170,
        "nutrient_name": "Pantothenic acid",
        "ub": 8
    },
    {
        "lb": 1,
        "nutrient_id": 1175,
        "nutrient_name": "Vitamin B-6",
        "ub": 2
    },
    {
        "lb": 2000,
        "nutrient_id": 1176,
        "nutrient_name": "Biotin",
        "ub": 5000
    },
    {
        "nutrient_id": 1057,
        "nutrient_name": "Caffeine",
        "ub": 10
    },
    {
        "ub": 30,
        "nutrient_name": "Alcohol, ethyl",
        "nutrient_id": 1018
    },
    {
        "lb": 360.0,
        "nutrient_id": 1177,
        "nutrient_name": "Folate, total",
        "ub": 520
    },
    {
        "lb": 2.16,
        "nutrient_id": 1178,
        "nutrient_name": "Vitamin B-12",
        "ub": 2.64
    },
    {
        "nutrient_name": "Cholesterol",
        "nutrient_id": 1253,
        "ub": 300.0
    }
]